<svg width="167" height="34" viewBox="0 0 167 34" fill="none" xmlns="http://www.w3.org/2000/svg">
<path fill-rule="evenodd" clip-rule="evenodd" d="M20.8001 3.51093C17.5113 3.51093 14.7 5.5871 13.5855 8.50717C11.1463 9.43036 9.40686 11.8034 9.40686 14.571C9.40686 18.1519 12.2992 21.0537 15.8549 21.0537H26.4532C30.4377 21.0537 33.6819 17.8001 33.6819 13.7962C33.6819 9.94687 30.6885 6.79295 26.9244 6.54283C25.4985 4.6639 23.2717 3.51093 20.8001 3.51093ZM20.8001 5.26379C22.6831 5.26379 24.4104 6.11785 25.539 7.60635L26.0224 8.23673L26.8092 8.29367C29.6873 8.47465 31.9405 10.8924 31.9405 13.7962C31.9405 16.8322 29.481 19.311 26.4532 19.311H15.8549C13.2619 19.311 11.1483 17.184 11.1483 14.571C11.1483 12.6148 12.378 10.8396 14.1984 10.1441L14.9326 9.86554L15.2157 9.12536C16.0955 6.81533 18.3386 5.26379 20.8001 5.26379" fill="#006EB6"/>
<path d="M96.0107 20H94.0234V10.0205H88.6738V20H86.6758V8.37695H96.0107V20ZM108.82 14.3174C108.82 16.0863 108.415 17.5114 107.606 18.5928C106.796 19.6742 105.701 20.2148 104.319 20.2148C102.908 20.2148 101.798 19.7673 100.988 18.8721V24.4688H99.0012V8.37695H100.817L100.913 9.66602C101.723 8.66341 102.847 8.16211 104.286 8.16211C105.683 8.16211 106.786 8.68848 107.595 9.74121C108.411 10.7939 108.82 12.2585 108.82 14.1348V14.3174ZM106.832 14.0918C106.832 12.7812 106.553 11.7464 105.994 10.9873C105.436 10.2282 104.669 9.84863 103.696 9.84863C102.492 9.84863 101.59 10.3822 100.988 11.4492V17.0029C101.583 18.0628 102.492 18.5928 103.717 18.5928C104.669 18.5928 105.425 18.2168 105.984 17.4648C106.549 16.7057 106.832 15.5814 106.832 14.0918ZM110.628 14.0811C110.628 12.9424 110.85 11.9183 111.294 11.0088C111.746 10.0993 112.369 9.39746 113.163 8.90332C113.966 8.40918 114.879 8.16211 115.903 8.16211C117.485 8.16211 118.764 8.70996 119.738 9.80566C120.719 10.9014 121.209 12.3587 121.209 14.1777V14.3174C121.209 15.4489 120.991 16.4658 120.554 17.3682C120.124 18.2633 119.505 18.9616 118.696 19.4629C117.894 19.9642 116.97 20.2148 115.924 20.2148C114.349 20.2148 113.07 19.667 112.089 18.5713C111.115 17.4756 110.628 16.0254 110.628 14.2207V14.0811ZM112.626 14.3174C112.626 15.6064 112.924 16.6413 113.518 17.4219C114.12 18.2025 114.922 18.5928 115.924 18.5928C116.934 18.5928 117.736 18.1989 118.33 17.4111C118.925 16.6162 119.222 15.5062 119.222 14.0811C119.222 12.8063 118.918 11.7751 118.309 10.9873C117.707 10.1924 116.905 9.79492 115.903 9.79492C114.922 9.79492 114.13 10.1852 113.529 10.9658C112.927 11.7464 112.626 12.8636 112.626 14.3174ZM122.631 18.3779L123.319 17.5293C124.092 16.5267 124.533 15.0228 124.64 13.0176L124.823 8.37695H132.31V18.3779H133.803V23.416H131.816V20H123.706V23.416H121.718L121.729 18.3779H122.631ZM124.984 18.3779H130.323V10.2139H126.746L126.628 12.9854C126.506 15.2985 125.958 17.096 124.984 18.3779ZM139.608 17.0889L142.315 8.37695H144.442L139.769 21.7939C139.046 23.7275 137.897 24.6943 136.321 24.6943L135.945 24.6621L135.204 24.5225V22.9111L135.741 22.9541C136.414 22.9541 136.937 22.818 137.309 22.5459C137.689 22.2738 138 21.776 138.244 21.0527L138.684 19.8711L134.538 8.37695H136.708L139.608 17.0889ZM149.646 15.0479H148.195V20H146.197V8.37695H148.195V13.2969H149.495L153.405 8.37695H155.812L151.214 13.9629L156.198 20H153.674L149.646 15.0479ZM166.343 9.98828H162.444V20H160.456V9.98828H156.632V8.37695H166.343V9.98828Z" fill="#006EB6"/>
<path fill-rule="evenodd" clip-rule="evenodd" d="M9.03488 19.9306H6.58958L1.78594 14.6721H1.74347V19.9306H0V8.99054H1.74347V14.003H1.78594L6.359 8.99054H8.64047L3.59615 14.2674L9.03488 19.9306Z" fill="#333333"/>
<path fill-rule="evenodd" clip-rule="evenodd" d="M44.7956 19.9306H43.0501V14.9608H37.5062V19.9306H35.7607V8.99054H37.5062V13.4764H43.0501V8.99054H44.7956V19.9306Z" fill="#333333"/>
<path fill-rule="evenodd" clip-rule="evenodd" d="M55.1544 10.4841H51.8879V19.9317H50.1485V10.4841H46.874V8.99158H55.1544V10.4841Z" fill="#333333"/>
<path fill-rule="evenodd" clip-rule="evenodd" d="M66.7922 8.99078L61.7903 21.6797C60.8984 23.9429 59.6423 25.0756 58.0243 25.0756C57.5773 25.0756 57.191 25.0349 56.8937 24.9393V23.4549C57.2658 23.585 57.6117 23.5626 57.9211 23.5626C58.801 23.5626 59.4563 23.04 59.8992 21.9806L60.7669 19.9085L56.5175 8.99078H58.449L61.3939 17.4053C61.4344 17.5171 61.5051 17.7957 61.6164 18.239H61.6791C61.7175 18.0723 61.7903 17.7998 61.8955 17.4317L64.984 8.99078H66.7922Z" fill="#333333"/>
<path fill-rule="evenodd" clip-rule="evenodd" d="M70.4077 13.9335V15.4627C70.4077 16.3696 70.701 17.1363 71.2835 17.7626C71.87 18.397 72.6103 18.7183 73.5124 18.7183C74.5682 18.7183 75.3913 18.3055 75.99 17.4921C76.5887 16.6828 76.8881 15.5522 76.8881 14.1023C76.8881 12.8883 76.6069 11.9346 76.0487 11.2432C75.4905 10.5519 74.7279 10.2062 73.7753 10.2062C72.762 10.2062 71.9469 10.56 71.332 11.2758C70.7151 11.9794 70.4077 12.87 70.4077 13.9335M70.4502 18.3462H70.4077V24.961H68.6642V8.99015H70.4077V10.9118H70.4502C71.3078 9.45784 72.5597 8.73596 74.2122 8.73596C75.6078 8.73596 76.7081 9.22603 77.4989 10.2041C78.2816 11.1843 78.672 12.4938 78.672 14.1369C78.672 15.969 78.2331 17.4331 77.3431 18.5353C76.4573 19.6333 75.2457 20.1864 73.7065 20.1864C72.3029 20.1864 71.2147 19.5764 70.4502 18.3462" fill="#333333"/>
<path fill-rule="evenodd" clip-rule="evenodd" d="M81.7046 20.016C81.377 20.016 81.0979 19.8981 80.8653 19.6602C80.6367 19.4284 80.5214 19.1417 80.5214 18.8183C80.5214 18.4869 80.6367 18.2042 80.8653 17.9663C81.0979 17.7243 81.377 17.6064 81.7046 17.6064C82.0404 17.6064 82.3215 17.7243 82.5561 17.9663C82.7908 18.2042 82.9081 18.4869 82.9081 18.8183C82.9081 19.1417 82.7908 19.4284 82.5561 19.6602C82.3215 19.8981 82.0404 20.016 81.7046 20.016" fill="#333333"/>
</svg>
